Item name,Attunement,Residuum cost,Gold cost,Crafting time,Crafting modifier,Residuum from disenchanting,Required components,Required tool
Bead of Nourishment,n,2,1,1,3,1,"","Alchemist's supplies (Int or Wis), Cook's utensils (Con or Wis)"
Bead of Refreshment,n,2,1,1,3,1,"","Alchemist's supplies (Int or Wis), Cook's utensils (Con or Wis)"
Spell scroll - Level 0 (cantrip),n,10,5,1,3,5,"",Spellcasting (must know the spell)
Walloping Ammunition,n,10,5,1,3,5,"",Woodcarver's tools (Dex or Wis)
Orb of Direction,n,20,10,1,3,10,"","Jeweler's tools (Dex or Int), Tinker's tools (Dex or Int)"
Orb of Time,n,20,10,1,3,10,"","Jeweler's tools (Dex or Int), Tinker's tools (Dex or Int)"
Pole of Collapsing,n,20,10,1,3,10,"",Woodcarver's tools (Dex or Wis) or Tinker's tools (Dex or Int)
Rope of Mending,n,20,10,1,3,10,"",Weaver's tools (Dex or Wis)
Tankard of Sobriety,n,20,10,1,3,10,"",Jeweler's tools (Dex or Int)
Ammunitons +1 (each),n,25,13,1,3,13,"",Woodcarver's tools (Dex or Wis)
Spellwrought Tattoo (Cantrip),n,40,20,1,3,20,Spell components (if any),Spellcasting (must know the spell)
Quaal's Feather Token - Anchor,n,50,25,1,3,25,"",Jeweler's tools (Dex or Int)
Quaal's Feather Token - Tree,n,50,25,1,3,25,"",Jeweler's tools (Dex or Int)
Armor of Gleaming,n,50,25,1,3,25,Medium or Heavy armor.,Smith's tools (Str or Int)
Boots of False Tracks,n,50,25,1,3,25,"",Cobbler's tools (Dex or Wis)
Candle of the Deep,n,50,25,1,3,25,"",Alchemist's supplies (Int or Wis)
Cloak of Billowing,n,50,25,1,3,25,"",Weaver's tools (Dex or Wis)
Cloak of Many Fashions,n,50,25,1,3,25,"",Weaver's tools (Dex or Wis)
Clothes of Mending,n,50,25,1,3,25,"",Weaver's tools (Dex or Wis)
Dread Helm,n,50,25,1,3,25,"",Smith's tools (Str or Int)
Ersatz Eye,y,50,25,1,3,25,"",Jeweler's tools (Dex or Int)
Heward's Handy Spice Pouch,n,50,25,1,3,25,"",Cook's utensils (Con or Wis)
Instrument of Illusions,y,50,25,1,3,25,"","Smith's tools (Str or Int) (if metal), Woodcarver's tools (Dex or Wis) (if wood)"
Instrument of Scribing,y,50,25,1,3,25,"","Smith's tools (Str or Int) (if metal), Woodcarver's tools (Dex or Wis) (if wood)"
Pipe of Smoke Monsters,n,50,25,1,3,25,"","Glassblower's tools (Dex or Con), Potter's tools (Dex or Wis), Woodcarver's tools (Dex or Wis) (depending on material)"
Pole of Angling,n,50,25,1,3,25,"",Woodcarver's tools (Dex or Wis)
Shield of Expression,n,50,25,1,3,25,"","Smith's tools (Str or Int) (if metal), Woodcarver's tools (Dex or Wis) (if wood)"
Smoldering Armor,n,50,25,1,3,25,Armor.,"Smith's tools (Str or Int) (if metal), Leatherworker's tools (Dex or Wis) (if leather)"
Staff of Adornment,n,50,25,1,3,25,"","Smith's tools (Str or Int) (if metal), Woodcarver's tools (Dex or Wis) (if wood)"
Staff of Birdcalls,n,50,25,1,3,25,"",Woodcarver's tools (Dex or Wis)
Staff of Flowers,n,50,25,1,3,25,"",Woodcarver's tools (Dex or Wis)
Talking Doll,y,50,25,1,3,25,"",Weaver's tools (Dex or Wis)
Veteran's Cane,n,50,25,1,3,25,"",Smith's tools (Str or Int)
Wand of Conducting,n,50,25,1,3,25,"",Woodcarver's tools (Dex or Wis)
Wand of Pyrotechnics,n,50,25,1,3,25,"",Woodcarver's tools (Dex or Wis)
Wand of Smiles,n,50,25,1,3,25,"",Woodcarver's tools (Dex or Wis)
Wand of Scowls,n,50,25,1,3,25,"",Woodcarver's tools (Dex or Wis)
Spell Scroll - Level 1,n,60,30,1,3,30,Spell components (if any),Spellcasting (must know the spell)
Prosthethic Limb,n,70,35,1,3,35,"",Smith's tools (Str or Int) (if metal) or Woodcarver's tools (Dex or Wis) (if wood)
Ammunition +2 (each),n,100,50,1,3,50,"",Woodcarver's tools (Dex or Wis)
Potion of Poison,n,100,50,1,3,50,"",Alchemist's supplies (Int or Wis)
Charlatan's Die,y,100,50,1,3,50,"","Glassblower's tools (Dex or Con), Jeweler's tools (Dex or Int), Woodcarver's tools (Dex or Wis) (depending on material)"
Dark Shard Amulet,y,100,50,1,3,50,"",Jeweler's tools (Dex or Int)
Enduring Spellbook,n,100,50,1,3,50,"",Calligraper's supplies (Dex or Cha)
Hat of Vermin,n,100,50,1,3,50,"",Weaver's tools (Dex or Wis)
Hat of Wizardry,y,100,50,1,3,50,"",Weaver's tools (Dex or Wis)
Horn of Silent Alarm,n,100,50,1,3,50,"",Jeweler's tools (Dex or Int)
Mystery Key,n,100,50,1,3,50,"",Tinker's tools (Dex or Int)
Dust of Dryness (one pellet),n,120,60,1,3,60,"",Alchemist's supplies (Int or Wis)
Elixir of Health,n,120,60,1,3,60,"",Alchemist's supplies (Int or Wis)
Keoghtom's Ointment (one dose),n,120,60,1,3,60,"",Alchemist's supplies (Int or Wis)
Spell Scroll - Level 2,n,120,60,1,3,60,Spell components (if any),Spellcasting (must know the spell)
Potion of Fire Breath,n,150,75,1,3,75,"",Alchemist's supplies (Int or Wis)
Potion of Greater Healing,n,150,75,1,3,75,"",Herbalism kit (Int or Wis)
Quaal's Feather Token - Swan Boat,n,150,75,1,3,75,"",Jeweler's tools (Dex or Int)
Ear Horn of Hearing,n,150,75,1,3,75,"",Jeweler's tools (Dex or Int)
Lock of Trickery,n,150,75,1,3,75,"",Tinker's tools (Dex or Int)
Perfume of Bewitching,n,150,75,1,3,75,"",Alchemist's supplies (Int or Wis)
Potion of Animal Friendship,n,180,90,1,3,90,"",Alchemist's supplies (Int or Wis)
Potion of Climbing,n,180,90,1,3,90,"",Alchemist's supplies (Int or Wis)
Potion of Heroism,n,180,90,1,3,90,"",Alchemist's supplies (Int or Wis)
Potion of Invisibility,n,180,90,1,3,90,"",Alchemist's supplies (Int or Wis)
Potion of Mind Reading,n,180,90,1,3,90,"",Alchemist's supplies (Int or Wis)
Potion of Water Breathing,n,180,90,1,3,90,"",Alchemist's supplies (Int or Wis)
Scroll of Protection,n,180,90,1,3,90,"",Calligrapher's supplies (Dex or Cha)
Cast-Off Armor,n,200,100,1,3,100,Armor.,"Smith's tools (Str or Int) (if metal), Leatherworker's tools (Dex or Wis) (if leather)"
Pot of Awakening,n,200,100,1,3,100,"",Potter's tools (Dex or Wis)
Spellwrought Tattoo (1st Level) - FInd Familiar banned,n,240,120,1,3,120,Spell components (if any),Spellcasting (must know the spell)
Spell Scroll - Level 3,n,240,120,1,3,120,Spell components (if any),Spellcasting (must know the spell)
Quaal's Feather Token - Fan,n,250,125,1,3,125,"",Jeweler's tools (Dex or Int)
Quaal's Feather Token - Whip,n,250,125,1,3,125,"",Jeweler's tools (Dex or Int)
Ruby of the War Mage,y,250,125,1,3,125,"",Jeweler's tools (Dex or Int)
Potion of Diminution,n,270,135,1,3,135,"",Alchemist's supplies (Int or Wis)
Potion of Growth,n,270,135,1,3,135,"",Alchemist's supplies (Int or Wis)
Figurine of Wondrous Power - Ivory Goat (Traveling),n,280,140,1,3,140,"",Jeweler's tools (Dex or Int)
Dust of Disappearance,n,300,150,1,3,150,"",Alchemist's supplies (Int or Wis)
Dust of Sneezing and choking,n,300,150,1,3,150,"",Alchemist's supplies (Int or Wis)
Gloves of Swimming and Climbing,y,300,150,1,3,150,"","Weaver's tools (Dex or Wis) (if cloth), Leatherworker's tools (Dex or Wis) (if hide)"
Ioun Stone - Sustenance,y,300,150,1,3,150,"",Jeweler's tools (Dex or Int)
Potion of Clairvoyance,n,300,150,1,3,150,"",Alchemist's supplies (Int or Wis)
Potion of Gaseous Form,n,300,150,1,3,150,"",Alchemist's supplies (Int or Wis)
Potion of Resistance,n,300,150,1,3,150,"",Alchemist's supplies (Int or Wis)
Sending Stones,n,300,150,1,3,150,"",Jeweler's tools (Dex or Int)
Universal Solvent,n,300,150,1,3,150,"",Alchemist's supplies (Int or Wis)
Unbreakable Arrow,n,300,150,1,3,150,"",Woodcarver's tools (Dex or Wis)
Spell Scroll - Level 4,n,320,160,1,3,160,Spell components (if any),Spellcasting (must know the spell)
Ammunition +3 (each),n,400,200,1,3,200,"",Woodcarver's tools (Dex or Wis)
Eyes of Charming,y,400,200,1,3,200,"",Jeweler's tools (Dex or Int)
Rope of Climbing,n,400,200,1,3,200,"",Weaver's tools (Dex or Wis)
Sovereign Glue,n,400,200,1,3,200,"",Alchemist's supplies (Int or Wis)
Horn of Blasting,n,450,225,1,3,225,"","Jeweler's tools (Dex or Int) (if bone), Smith's tools (Str or Int) (if metal), Woodcarver's tools (Dex or Wis) (if wood)"
Potion of Longevity,n,450,225,1,3,225,"",Alchemist's supplies (Int or Wis)
Potion of Superior Healing,n,450,225,1,3,225,"",Herbalism kit (Int or Wis)
Spellwrought Tattoo (2nd Level),n,480,240,1,3,240,Spell components (if any),Spellcasting (must know the spell)
Oil of Slipperiness,n,480,240,1,3,240,"",Alchemist's supplies (Int or Wis)
Circlet of Blasting,n,500,250,2,4,250,"",Jeweler's tools (Dex or Int)
Eyes of Minute Seeing,n,500,250,2,4,250,"",Jeweler's tools (Dex or Int)
Helm of Comprehend Languages,n,500,250,2,4,250,"",Smith's tools (Str or Int)
Nolzur's Marvelous Pigments,n,500,250,2,4,250,"",Painter's supplies (Dex or Cha)
Philter of Love,n,500,250,2,4,250,"",Alchemist's supplies (Int or Wis)
Potion of Flying,n,500,250,2,4,250,"",Alchemist's supplies (Int or Wis)
Wind Fan,n,500,250,2,4,250,"",Calligrapher's supplies (Dex or Cha)
Medallion of Thoughts,y,550,275,2,4,275,"",Jeweler's tools (Dex or Int)
Ring of Jumping,y,550,275,2,4,275,"",Jeweler's tools (Dex or Int)
Arrow of Slaying (each),n,600,300,2,4,300,"",Woodcarver's tools (Dex or Wis)
Necklace of Prayer Beads - Curing (one bead),y,600,300,2,4,300,"",Jeweler's tools (Dex or Int)
Necklace of Prayer Beads - Smiting (one bead),y,600,300,2,4,300,"",Jeweler's tools (Dex or Int)
Pipes of the Sewers,y,600,300,2,4,300,"","Smith's tools (Str or Int) (if metal), Woodcarver's tools (Dex or Wis) (if wood)"
Ring of Feather Falling,y,600,300,2,4,300,"",Jeweler's tools (Dex or Int)
Clockwork Amulet,n,600,300,2,4,300,"",Tinker's tools (Dex or Int)
Spell Scroll - Level 5,n,640,320,2,4,320,Spell components (if any),Spellcasting (must know the spell)
Ring of Animal Influence,n,650,325,2,4,325,"",Jeweler's tools (Dex or Int)
Decanter of Endless Water,n,800,400,2,4,400,"","Glassblower's tools (Dex or Con) (if glass), Jeweler's tools (Dex or Int) (if precious metal), Potter's tools (Dex or Wis) (if ceramic)"
Heward's Handy Haversack,n,800,400,2,4,400,"","Weaver's tools (Dex or Wis) (if cloth), Leatherworker's tools (Dex or Wis) (if hide)"
Elemental Gem,n,840,420,2,4,420,"",Jeweler's tools (Dex or Int)
Potion of Vitality,n,840,420,2,4,420,"",Alchemist's supplies (Int or Wis)
Eyes of the Eagle,y,850,425,2,4,425,"",Jeweler's tools (Dex or Int)
Figurine of Wondrous Power - Ivory Goat (Travail),n,900,450,2,4,450,"",Jeweler's tools (Dex or Int)
Wand of Enemy Detection,y,900,450,2,4,450,"",Woodcarver's tools (Dex or Wis)
Wand of Magic Detection,n,900,450,2,4,450,"",Woodcarver's tools (Dex or Wis)
Wand of Secrets,n,900,450,2,4,450,"",Woodcarver's tools (Dex or Wis)
Eversmoking Bottle,n,940,470,2,4,470,"","Smith's tools (Str or Int) (if metal), Glassblower's tools (Dex or Con) (if glass)"
Potion of Speed,n,950,475,2,4,475,"",Alchemist's supplies (Int or Wis)
Spellwrought Tattoo (3rd Level),n,960,480,2,4,480,Spell components (if any),Spellcasting (must know the spell)
Bead of Force (per bead),n,960,480,2,4,480,"",Jeweler's tools (Dex or Int)
Cap of Water Breathing,n,1000,500,4,5,500,"","Weaver's tools (Dex or Wis) (if cloth), Leatherworker's tools (Dex or Wis) (if hide)"
Ioun Stone - Awareness,y,1000,500,4,5,500,"",Jeweler's tools (Dex or Int)
Quiver of Ehlonna,n,1000,500,4,5,500,"",Leatherworker's tools (Dex or Wis)
Staff of the Adder,y,1000,500,4,5,500,Staff.,"Smith's tools (Str or Int) (if metal), Woodcarver's tools (Dex or Wis) (if wood)"
Trident of Fish Command,y,1000,500,4,5,500,Trident.,Smith's tools (Str or Int)
Moon-Touched Sword,n,1000,500,4,5,500,Melee weapon.,Smith's tools (Str or Int)
Driftglobe,n,1100,550,4,5,550,"",Glassblower's tools (Dex or Con)
Guardian Emblem,y,1100,550,4,5,550,"",Jeweler's tools (Dex or Int)
Gloves of Missile Snaring,y,1200,600,4,5,600,"","Weaver's tools (Dex or Wis) (if cloth), Leatherworker's tools (Dex or Wis) (if hide)"
Mariner's Armor,n,1200,600,4,5,600,Armor.,"Smith's tools (Str or Int) (if metal), Leatherworker's tools (Dex or Wis) (if leather)"
Necklace of Prayer Beads - Bless (one bead),y,1200,600,4,5,600,"",Jeweler's tools (Dex or Int)
Spell Scroll - Level 6,n,1200,600,4,5,600,Spell components (if any),Spellcasting (must know the spell)
Staff of Withering,y,1200,600,4,5,600,Staff.,"Smith's tools (Str or Int) (if metal), Woodcarver's tools (Dex or Wis) (if wood)"
Vicious Weapon,n,1200,600,4,5,600,Weapon.,"Smith's tools (Str or Int) (for metal weapons), Woodcarver's tools (Dex or Wis) (for wooden weapons), Tinker's tools (Dex or Int) (for crossbows), Leatherworker's tools (Dex or Wis) (for slings and whips)"
Immovable Rod,n,1250,625,4,5,625,"",Smith's tools (Str or Int)
Ring of the Ram,y,1250,625,4,5,625,"",Jeweler's tools (Dex or Int)
Wand of the War Mage +1,y,1260,630,4,5,630,"",Woodcarver's tools (Dex or Wis)
Spellwrought Tattoo (4th level),n,1280,640,4,5,640,Spell components (if any),Spellcasting (must know the spell)
Potion of Supreme healing,n,1350,675,4,5,675,"",Herbalism kit (Int or Wis)
Sword of Life-Stealing,y,1400,700,4,5,700,Melee weapon.,Smith's tools (Str or Int)
Sword of Sharpness,y,1400,700,4,5,700,Slashing melee weapon.,Smith's tools (Str or Int)
Hat of Disguise,y,1450,725,4,5,725,"",Weaver's tools (Dex or Wis)
Boots of Striding and Springing,y,1500,750,4,5,750,"",Cobbler's tools (Dex or Wis)
Bracers of Archery,y,1500,750,4,5,750,"",Leatherworker's tools (Dex or Wis)
Chime of Opening,n,1500,750,4,5,750,"",Jeweler's tools (Dex or Int)
Goggles of Night,n,1500,750,4,5,750,"",Tinker's tools (Dex or Int)
Horseshoes of the Zephyr,n,1500,750,4,5,750,"",Smith's tools (Str or Int)
Necklace of Adaptation,y,1500,750,4,5,750,"",Jeweler's tools (Dex or Int)
Orb of the Stein Rune,y,1500,750,4,5,750,"",Jeweler's tools (Dex or Int)
Ring of Water Walking,n,1500,750,4,5,750,"",Jeweler's tools (Dex or Int)
Saddle of the Cavalier,n,1500,750,4,5,750,"",Leatherworker's tools (Dex or Wis)
Bag of Holding,n,1600,800,4,5,800,"","Weaver's tools (Dex or Wis) (if cloth), Leatherworker's tools (Dex or Wis) (if hide)"
Tan Bag of Tricks,n,1600,800,4,5,800,"","Weaver's tools (Dex or Wis) (if cloth), Leatherworker's tools (Dex or Wis) (if hide)"
Nature's Mantle,y,1600,800,4,5,800,"",Weaver's tools (Dex or Wis)
Weapon +1,n,1800,900,4,5,900,Weapon.,"Smith's tools (Str or Int) (for metal weapons), Woodcarver's tools (Dex or Wis) (for wooden weapons), Tinker's tools (Dex or Int) (for crossbows), Leatherworker's tools (Dex or Wis) (for slings and whips), Weaver's Tools (Dex or Wis) (for handwraps)"
Gray Bag of Tricks,n,1900,950,4,5,950,"","Weaver's tools (Dex or Wis) (if cloth), Leatherworker's tools (Dex or Wis) (if hide)"
Oil of Etherealness,n,1920,960,4,5,960,"",Alchemist's supplies (Int or Wis)
Alchemy Jug,n,2000,1000,6,7,1000,"","Potter's tools (Dex or Wis) (if ceramic), Glassblower's tools (Dex or Con) (if glass)"
Dagger of Venom,n,2000,1000,6,7,1000,Dagger.,Smith's tools (Str or Int)
Dimensional Shackles,n,2000,1000,6,7,1000,"",Smith's tools (Str or Int)
Figurine of Wondrous Power - Golden Lion (each),n,2000,1000,6,7,1000,"",Jeweler's tools (Dex or Int)
Figurine of Wondrous Power - Silver Raven,n,2000,1000,6,7,1000,"",Jeweler's tools (Dex or Int)
Javelin of Lightning,n,2000,1000,6,7,1000,Javelin.,Smith's tools (Str or Int)
Necklace of Fireballs (4 beads),n,2000,1000,6,7,1000,"",Jeweler's tools (Dex or Int)
Potion of Invulnerability,n,2000,1000,6,7,1000,"",Alchemist's supplies (Int or Wis)
Ring of Swimming,n,2000,1000,6,7,1000,"",Jeweler's tools (Dex or Int)
Sword of Wounding,y,2000,1000,6,7,1000,Melee weapon.,Smith's tools (Str or Int)
Tentacle Rod,y,2000,1000,6,7,1000,"",Smith's tools (Str or Int)
Outer Essence Shard (Lawful),y,2000,1000,6,7,1000,"",Jeweler's tools (Dex or Int)
Outer Essence Shard (Chaotic),y,2000,1000,6,7,1000,"",Jeweler's tools (Dex or Int)
Ring of X-Ray Vision,y,2200,1100,6,7,1100,"",Jeweler's tools (Dex or Int)
Astral Shard,y,2200,1100,6,7,1100,"",Jeweler's tools (Dex or Int)
Pearl of Power,y,2400,1200,6,7,1200,"",Jeweler's tools (Dex or Int)
Spell Scroll - Level 7,n,2400,1200,6,7,1200,Spell components (if any),Spellcasting (must know the spell)
Rust Bag of Tricks,n,2450,1225,6,7,1225,"","Weaver's tools (Dex or Wis) (if cloth), Leatherworker's tools (Dex or Wis) (if hide)"
Boots of Elvenkind,n,2500,1250,6,7,1250,"",Cobbler's tools (Dex or Wis)
Gem of Brightness,n,2500,1250,6,7,1250,"",Jeweler's tools (Dex or Int)
Gem of Seeing,y,2500,1250,6,7,1250,"",Jeweler's tools (Dex or Int)
Gloves of Thievery,n,2500,1250,6,7,1250,"",Weaver's tools (Dex or Wis)
Ioun Stone - Regeneration,y,2500,1250,6,7,1250,"",Jeweler's tools (Dex or Int)
Necklace of Fireballs (5 beads),n,2500,1250,6,7,1250,"",Jeweler's tools (Dex or Int)
Rope of Entanglement,n,2500,1250,6,7,1250,"",Weaver's tools (Dex or Wis)
Slippers of Spider Climbing,y,2500,1250,6,7,1250,"",Weaver's tools (Dex or Wis)
Wand of Magic Missiles,n,2500,1250,6,7,1250,"",Woodcarver's tools (Dex or Wis)
Spellwrought Tattoo (5th Level),n,2560,1280,6,7,1280,Spell components (if any),Spellcasting (must know the spell)
Giant Slayer,n,2700,1350,6,7,1350,Melee weapon.,Smith's tools (Str or Int)
Elemental Essence Shard (Air),y,2700,1350,6,7,1350,"",Jeweler's tools (Dex or Int)
Shadowfell Shard,y,2700,1350,6,7,1350,"",Jeweler's tools (Dex or Int)
Cloak of the Manta Ray,n,3000,1500,8,9,1500,"",Weaver's tools (Dex or Wis)
Dragon Slayer,n,3000,1500,8,9,1500,Melee weapon.,Smith's tools (Str or Int)
Folding Boat,n,3000,1500,8,9,1500,"",Carpenter's tools (Str or Con)
Helm of Telepathy,y,3000,1500,8,9,1500,"",Smith's tools (Str or Int)
Ioun Stone - Agility,y,3000,1500,8,9,1500,"",Jeweler's tools (Dex or Int)
Ioun Stone - Fortitude,y,3000,1500,8,9,1500,"",Jeweler's tools (Dex or Int)
Ioun Stone - Insight,y,3000,1500,8,9,1500,"",Jeweler's tools (Dex or Int)
Ioun Stone - Intellect,y,3000,1500,8,9,1500,"",Jeweler's tools (Dex or Int)
Ioun Stone - Leadership,y,3000,1500,8,9,1500,"",Jeweler's tools (Dex or Int)
Ioun Stone - Strength,y,3000,1500,8,9,1500,"",Jeweler's tools (Dex or Int)
Iron Bands of Bilarro,n,3000,1500,8,9,1500,"",Smith's tools (Str or Int)
Mithral Armor,n,3000,1500,8,9,1500,Metal armor.,Smith's tools (Str or Int)
Necklace of Fireballs (6 beads),n,3000,1500,8,9,1500,"",Jeweler's tools (Dex or Int)
Oil of Sharpness,n,3000,1500,8,9,1500,"",Alchemist's supplies (Int or Wis)
Quaal's Feather Token - Bird,n,3000,1500,8,9,1500,"",Jeweler's tools (Dex or Int)
Robe of Eyes,y,3000,1500,8,9,1500,"",Weaver's tools (Dex or Wis)
Elemental Essence Shard (Earth),y,3000,1500,8,9,1500,"",Jeweler's tools (Dex or Int)
Deck of Illusions,n,3400,1700,8,9,1700,"",Calligrapher's supplies (Dex or Cha)
Amulet of Proof Against Detection and Location,y,3500,1750,8,9,1750,"",Jeweler's tools (Dex or Int)
Necklace of Fireballs (7 beads),n,3500,1750,8,9,1750,"",Jeweler's tools (Dex or Int)
Ioun Stone - Protection,y,3750,1875,8,9,1875,"",Jeweler's tools (Dex or Int)
Armor of Resistance,y,4000,2000,10,11,2000,Armor.,"Smith's tools (Str or Int) (if metal), Leatherworker's tools (Dex or Wis) (if leather)"
Boots of Levitation,y,4000,2000,10,11,2000,"",Cobbler's tools (Dex or Wis)
Boots of Speed,y,4000,2000,10,11,2000,"",Cobbler's tools (Dex or Wis)
Cape of the Mountebank,n,4000,2000,10,11,2000,"",Weaver's tools (Dex or Wis)
Cloak of Elvenkind,y,4000,2000,10,11,2000,"",Weaver's tools (Dex or Wis)
Elven Chain,n,4000,2000,10,11,2000,Chain shirt.,Smith's tools (Str or Int)
Horseshoes of Speed,y,4000,2000,10,11,2000,"",Smith's tools (Str or Int)
Instrument of the Bards - Fochlucan Bandore,y,4000,2000,10,11,2000,"",Woodcarver's tools (Dex or Wis)
Necklace of Fireballs (8 beads),n,4000,2000,10,11,2000,"",Jeweler's tools (Dex or Int)
Feywild Shard,y,4000,2000,10,11,2000,"",Jeweler's tools (Dex or Int)
Luckstone,y,4200,2100,10,11,2100,"",Jeweler's tools (Dex or Int)
Staff of the Python,y,4200,2100,10,11,2100,Staff.,"Smith's tools (Str or Int) (if metal), Woodcarver's tools (Dex or Wis) (if wood)"
Mace of Smiting,n,4400,2200,10,11,2200,Bludgeoning melee weapon.,Smith's tools (Str or Int)
Gauntlets of Ogre Power,y,4500,2250,10,11,2250,"",Smith's tools (Str or Int)
Headband of Intellect,y,4500,2250,10,11,2250,"",Weaver's tools (Dex or Wis)
Instrument of the Bards - Mac-Fuirmidh Cittern,y,4500,2250,10,11,2250,"",Woodcarver's tools (Dex or Wis)
Necklace of Fireballs (9 beads),n,4500,2250,10,11,2250,"",Jeweler's tools (Dex or Int)
Wand of Web,y,4500,2250,10,11,2250,"",Woodcarver's tools (Dex or Wis)
Spell Scroll - Level 8,n,4800,2400,10,11,2400,Spell components (if any),Spellcasting (must know the spell)
Instrument of the Bards - Doss Lute,y,5000,2500,10,11,2500,"",Woodcarver's tools (Dex or Wis)
Ioun Stone - Absorption,y,5000,2500,10,11,2500,"",Jeweler's tools (Dex or Int)
Lantern of Revealing,n,5000,2500,10,11,2500,"",Tinker's tools (Dex or Int)
Periapt of Health,n,5000,2500,10,11,2500,"",Jeweler's tools (Dex or Int)
Periapt of Wound Closure,y,5000,2500,10,11,2500,"",Jeweler's tools (Dex or Int)
Pipes of Haunting,n,5000,2500,10,11,2500,"","Smith's tools (Str or Int) (if metal), Woodcarver's tools (Dex or Wis) (if wood)"
Plate Armor of Etherealness,y,5000,2500,10,11,2500,"",Smith's tools (Str or Int)
Portable Hole,n,5000,2500,10,11,2500,"",Weaver's tools (Dex or Wis)
Ring of Evasion,y,5000,2500,10,11,2500,"",Jeweler's tools (Dex or Int)
Ring of Mind Shielding,y,5000,2500,10,11,2500,"",Jeweler's tools (Dex or Int)
Ring of Resistance,y,5000,2500,10,11,2500,"",Jeweler's tools (Dex or Int)
Wings of Flying,y,5000,2500,10,11,2500,"",Weaver's tools (Dex or Wis)
Elemental Essence Shard (Fire),y,5000,2500,10,11,2500,"",Jeweler's tools (Dex or Int)
Far Realm Shard,y,5000,2500,10,11,2500,"",Jeweler's tools (Dex or Int)
Outer Essence Shard (Evil),y,5000,2500,10,11,2500,"",Jeweler's tools (Dex or Int)
Figurine of Wondrous Power - Onyx Dog,n,5300,2650,10,11,2650,"",Jeweler's tools (Dex or Int)
Elemental Essence Shard (Water),y,5400,2700,10,11,2700,"",Jeweler's tools (Dex or Int)
Dragon Scale Mail,y,5500,2750,10,11,2750,Scale mail.,Smith's tools (Str or Int)
Ring of Warmth,y,5500,2750,10,11,2750,"",Jeweler's tools (Dex or Int)
Rod of Rulership,y,5500,2750,10,11,2750,"",Smith's tools (Str or Int)
Figurine of Wondrous Power - Ebony Fly,n,5700,2850,10,11,2850,"",Jeweler's tools (Dex or Int)
Armor +1,n,6000,3000,10,11,3000,Armor.,"Smith's tools (Str or Int) (if metal), Leatherworker's tools (Dex or Wis) (if leather)"
Arrow-Catching Shield,y,6000,3000,10,11,3000,Shield.,"Smith's tools (Str or Int) (if metal), Woodcarver's tools (Dex or Wis) (if wood)"
Boots of the Winterlands,y,6000,3000,10,11,3000,"",Cobbler's tools (Dex or Wis)
Brooch of Shielding,y,6000,3000,10,11,3000,"",Jeweler's tools (Dex or Int)
Cloak of Arachnida,y,6000,3000,10,11,3000,"",Weaver's tools (Dex or Wis)
Cloak of the Bat,y,6000,3000,10,11,3000,"",Weaver's tools (Dex or Wis)
Glamoured Studded Leather,n,6000,3000,10,11,3000,Studded leather.,Leatherworker's tools (Dex or Wis)
Ioun Stone - Reserve,y,6000,3000,10,11,3000,"",Jeweler's tools (Dex or Int)
Mace of Terror,y,6000,3000,10,11,3000,Melee weapon.,Smith's tools (Str or Int)
Necklace of Prayer Beads - Summons (one bead),y,6000,3000,10,11,3000,"",Jeweler's tools (Dex or Int)
Necklace of Prayer Beads - Wind Walking (one bead),y,6000,3000,10,11,3000,"",Jeweler's tools (Dex or Int)
Ring of Regeneration,y,6000,3000,10,11,3000,"",Jeweler's tools (Dex or Int)
Robe of Scintillating Colors,y,6000,3000,10,11,3000,"",Weaver's tools (Dex or Wis)
Shield +1,n,6000,3000,10,11,3000,Shield.,"Smith's tools (Str or Int) (if metal), Woodcarver's tools (Dex or Wis) (if wood)"
Spell Scroll - Level 9,n,6000,3000,10,11,3000,Spell components (if any),Spellcasting (must know the spell)
Staff of Healing,y,6000,3000,10,11,3000,Staff.,"Smith's tools (Str or Int) (if metal), Woodcarver's tools (Dex or Wis) (if wood)"
Deevotee's Censer,y,6000,3000,10,11,3000,Flail,Smith's tools (Str or Int)
Wand of the War Mage +2,y,6300,3150,10,11,3150,"",Woodcarver's tools (Dex or Wis)
Instrument of the Bards - Canaith Mandolin,y,6500,3250,10,11,3250,"",Woodcarver's tools (Dex or Wis)
Outer Essence Shard (Good),y,6500,3250,10,11,3250,"",Jeweler's tools (Dex or Int)
Reveler's Concertina,y,6500,15000,3250,10,11,3250,"",Woodcarver's tools (Dex or Wis)
Instrument of the Bards - Cli Lyre,y,7000,3500,10,11,3500,"",Woodcarver's tools (Dex or Wis)
Oathbow,y,7000,3500,10,11,3500,Longbow or shortbow.,Woodcarver's tools (Dex or Wis)
Shard of the Ise Rune,y,7000,3500,10,11,3500,"",Jeweler's tools (Dex or Int)
Staff of Charming,y,7000,3500,10,11,3500,Staff.,"Smith's tools (Str or Int) (if metal), Woodcarver's tools (Dex or Wis) (if wood)"
Wand of Binding,y,7500,3750,10,11,3750,"",Woodcarver's tools (Dex or Wis)
Adamantine Armor,n,8000,4000,10,11,4000,Metal armor.,Smith's tools (Str or Int)
Frost Brand,y,8000,4000,10,11,4000,Melee weapon.,Smith's tools (Str or Int)
Necklace of Prayer Beads - Favor (one bead),y,8000,4000,10,11,4000,"",Jeweler's tools (Dex or Int)
Ring of Spell Turning,y,8000,4000,10,11,4000,"",Jeweler's tools (Dex or Int)
Winged Boots,y,8000,4000,10,11,4000,"",Cobbler's tools (Dex or Wis)
Wand of Fear,y,8500,4250,10,11,4250,"",Woodcarver's tools (Dex or Wis)
Bowl of Commanding Water Elementals,n,8670,4335,10,11,4335,"","Potter's tools (Dex or Wis) (if ceramic), Glassblower's tools (Dex or Con) (if glass)"
Brazier of Commanding Fire Elementals,n,8670,4335,10,11,4335,"",Smith's tools (Str or Int)
Censer of Controlling Air Elementals,n,8670,4335,10,11,4335,"",Jeweler's tools (Dex or Int)
Stone of Controlling Earth Elementals,n,8670,4335,10,11,4335,"",Jeweler's tools (Dex or Int)
Amulet of Health,y,9000,4500,10,11,4500,"",Jeweler's tools (Dex or Int)
Weapon +2,n,9000,4500,10,11,4500,Weapon.,"Smith's tools (Str or Int) (for metal weapons), Woodcarver's tools (Dex or Wis) (for wooden weapons), Tinker's tools (Dex or Int) (for crossbows), Leatherworker's tools (Dex or Wis) (for slings and whips)"
Carpet of Flying (6 ft. x 9 ft.),n,10000,5000,10,11,5000,"",Weaver's tools (Dex or Wis)
Dancing Sword,y,10000,5000,10,11,5000,Melee weapon.,Smith's tools (Str or Int)
Figurine of Wondrous Power - Ivory Goat (Terror),n,10000,5000,10,11,5000,"",Jeweler's tools (Dex or Int)
Mace of Disruption,y,10000,5000,10,11,5000,Melee weapon.,Smith's tools (Str or Int)
Ring of Invisibility,y,10000,5000,10,11,5000,"",Jeweler's tools (Dex or Int)
Ring of Telekinesis,y,10000,5000,10,11,5000,"",Jeweler's tools (Dex or Int)
Rod of Alertness,y,10000,5000,10,11,5000,"",Smith's tools (Str or Int)
Sentinel Shield,n,10000,5000,10,11,5000,Shield.,"Smith's tools (Str or Int) (if metal), Woodcarver's tools (Dex or Wis) (if wood)"
Sun Blade,y,10000,5000,10,11,5000,Longsword.,Smith's tools (Str or Int)
Weapon of Warning,y,10000,5000,10,11,5000,Weapon.,"Smith's tools (Str or Int) (for metal weapons), Woodcarver's tools (Dex or Wis) (for wooden weapons), Tinker's tools (Dex or Int) (for crossbows), Leatherworker's tools (Dex or Wis) (for slings and whips)"
Figurine of Wondrous Power - Serpentine Owl,n,10400,5200,10,11,5200,"",Jeweler's tools (Dex or Int)
Animated Shield,y,11250,5625,10,11,5625,Shield.,"Smith's tools (Str or Int) (if metal), Woodcarver's tools (Dex or Wis) (if wood)"
Bracers of Defense,y,11250,5625,10,11,5625,"","Smith's tools (Str or Int) (if metal), Leatherworker's tools (Dex or Wis) (if leather)"
Belt of Dwarvenkind,y,12000,6000,10,11,6000,"",Leatherworker's tools (Dex or Wis)
Broom of Flying,n,12000,6000,10,11,6000,"",Woodcarver's tools (Dex or Wis)
Carpet of Flying (5 ft. x 7 ft.),n,12000,6000,10,11,6000,"",Weaver's tools (Dex or Wis)
Cloak of Protection,y,12000,6000,10,11,6000,"",Weaver's tools (Dex or Wis)
Figurine of Wondrous Power - Bronze Griffon,n,12000,6000,10,11,6000,"",Jeweler's tools (Dex or Int)
Flame Tongue,y,12000,6000,10,11,6000,Melee weapon.,Smith's tools (Str or Int)
Mantle of Spell Resistance,y,12000,6000,10,11,6000,"",Weaver's tools (Dex or Wis)
Ring of Free Action,y,12000,6000,10,11,6000,"",Jeweler's tools (Dex or Int)
Ring of Protection,y,12000,6000,10,11,6000,"",Jeweler's tools (Dex or Int)
Ring of Spell Storing,y,12000,6000,10,11,6000,"",Jeweler's tools (Dex or Int)
Wand of Polymorph,y,12000,6000,10,11,6000,"",Woodcarver's tools (Dex or Wis)
Scarab of Protection,y,13000,6500,10,11,6500,"",Jeweler's tools (Dex or Int)
All-Purpose Tool +1,y,13500,6750,10,11,6750,"",Smith's tools (Str or Int)
Moon Sickle +1,y,13500,6750,10,11,6750,Sickle,Smith's tools (Str or Int)
Rhythm-Maker's Drum +1,y,13500,6750,10,11,6750,"",Leatherworker's tools (Dex or Wis)
Carpet of Flying (4 ft. x 6 ft.),n,14000,7000,10,11,7000,"",Weaver's tools (Dex or Wis)
Figurine of Wondrous Power - Marble Elephant,n,14000,7000,10,11,7000,"",Jeweler's tools (Dex or Int)
Ring of Shooting Stars,y,14000,7000,10,11,7000,"",Jeweler's tools (Dex or Int)
Amulet of the Devout +1,y,14000,7000,10,11,7000,"",Jeweler's tools (Dex or Int)
Arcane Grimoire +1,y,14000,7000,10,11,7000,Spellbook,Calligrapher's supplies (Dex or Int)
Cloak of Displacement,y,15000,7500,10,11,7500,"",Weaver's tools (Dex or Wis)
Ioun Stone - Mastery,y,15000,7500,10,11,7500,"",Jeweler's tools (Dex or Int)
Rod of the Pact Keeper +1,y,15000,7500,10,11,7500,"",Smith's tools (Str or Int)
Spellguard Shield,y,15000,7500,10,11,7500,Shield.,"Smith's tools (Str or Int) (if metal), Woodcarver's tools (Dex or Wis) (if wood)"
Staff of Thunder and Lightning,y,15000,7500,10,11,7500,Staff.,"Smith's tools (Str or Int) (if metal), Woodcarver's tools (Dex or Wis) (if wood)"
Bloodwell Vial +1,y,15000,7500,10,11,7500,"",Glassblower's tools (Dex or Con)
Ioun Stone - Greater Absorption,y,16000,8000,20,13,8000,"",Jeweler's tools (Dex or Int)
Periapt of Proof Against Poison,y,16000,8000,20,13,8000,"",Jeweler's tools (Dex or Int)
Staff of Fire,y,16000,8000,20,13,8000,Staff.,"Smith's tools (Str or Int) (if metal), Woodcarver's tools (Dex or Wis) (if wood)"
Staff of Frost,y,16000,8000,20,13,8000,Staff.,"Smith's tools (Str or Int) (if metal), Woodcarver's tools (Dex or Wis) (if wood)"
Staff of Swarming Insects,y,16000,8000,20,13,8000,Staff.,"Smith's tools (Str or Int) (if metal), Woodcarver's tools (Dex or Wis) (if wood)"
Armor +2,n,18000,9000,20,13,9000,Armor.,"Smith's tools (Str or Int) (if metal), Leatherworker's tools (Dex or Wis) (if leather)"
Carpet of Flying (3 ft. x 5 ft.),n,18000,9000,20,13,9000,"",Weaver's tools (Dex or Wis)
Mirror of Life Trapping,n,18000,9000,20,13,9000,"",Glassblower's tools (Dex or Con)
Nine Lives Stealer (Fully Charged),y,18000,9000,20,13,9000,Melee weapon.,Smith's tools (Str or Int)
Shield +2,n,18000,9000,20,13,9000,Shield,"Smith's tools (Str or Int) (if metal), Woodcarver's tools (Dex or Wis) (if wood)"
Dwarven Plate,n,19000,9500,20,13,9500,Armor.,Smith's tools (Str or Int)
Figurine of Wondrous Power - Obsidian Steed,n,19000,9500,20,13,9500,"",Jeweler's tools (Dex or Int)
Ring of Earth Elemental Command,y,20000,10000,20,13,10000,"",Jeweler's tools (Dex or Int)
Ring of Water Elemental Command,y,20000,10000,20,13,10000,"",Jeweler's tools (Dex or Int)
Wand of the War Mage +3,y,20160,10080,20,13,10080,"",Woodcarver's tools (Dex or Wis)
Efreeti Chain,y,21000,10500,20,13,10500,Chain mail.,Smith's tools (Str or Int)
Ring of Air Elemental Command,y,23000,11500,20,13,11500,"",Jeweler's tools (Dex or Int)
Ring of Fire Elemental Command,y,23000,11500,20,13,11500,"",Jeweler's tools (Dex or Int)
Lyre of Building,y,26500,13250,30,15,13250,"",Woodcarver's tools (Dex or Wis)
Scimitar of Speed,y,27000,13500,30,15,13500,Melee finesse weapon.,Smith's tools (Str or Int)
All-Purpose Tool +2,y,27000,13500,30,15,13500,"",Smith's tools (Str or Int)
Moon Sickle +2,y,27000,13500,30,15,13500,Sickle,Smith's tools (Str or Int)
Rhythm-Maker's Drum +2,y,27000,13500,30,15,13500,"",Leatherworker's tools (Dex or Wis)
Amulet of the Devout +2,y,28000,14000,30,15,14000,"",Jeweler's tools (Dex or Int)
Arcane Grimoire +2,y,28000,14000,30,15,14000,Spellbook,Calligrapher's supplies (Dex or Int)
Weapon +3,n,28800,14400,30,15,14400,Weapon.,"Smith's tools (Str or Int) (for metal weapons), Woodcarver's tools (Dex or Wis) (for wooden weapons), Tinker's tools (Dex or Int) (for crossbows), Leatherworker's tools (Dex or Wis) (for slings and whips)"
Robe of Stars,y,30000,15000,30,15,15000,"",Weaver's tools (Dex or Wis)
Rod of the Pact Keeper +2,y,30000,15000,30,15,15000,"",Smith's tools (Str or Int)
Bloodwell Vial +2,y,30000,15000,30,15,15000,"",Glassblower's tools (Dex or Con)
Instrument of the Bards - Anstruth Harp,y,31000,15500,30,15,15500,"",Woodcarver's tools (Dex or Wis)
Wand of Fireballs,y,32000,16000,30,15,16000,"",Woodcarver's tools (Dex or Wis)
Wand of Lightning Bolts,y,32000,16000,30,15,16000,"",Woodcarver's tools (Dex or Wis)
Wand of Paralysis,y,32000,16000,30,15,16000,"",Woodcarver's tools (Dex or Wis)
Instrument of the Bards - Ollamh Harp,y,34500,17250,30,15,17250,"",Woodcarver's tools (Dex or Wis)
Ring of Djinni Summoning,y,40000,20000,30,15,20000,"",Jeweler's tools (Dex or Int)
Daern's Instant Fortress,n,40000,20000,30,15,20000,"",Tinker's tools (Dex or Int)
Helm of Teleportation,y,48000,24000,30,15,24000,"",Smith's tools (Str or Int)
Staff of Striking,y,48000,24000,30,15,24000,Staff.,"Smith's tools (Str or Int) (if metal), Woodcarver's tools (Dex or Wis) (if wood)"
Crystal Ball,y,50000,25000,35,17,25000,"",Jeweler's tools (Dex or Int)
Cubic Gate,n,50000,25000,35,17,25000,"",Tinker's tools (Dex or Int)
Rod of Absorption,y,50000,25000,35,17,25000,"",Smith's tools (Str or Int)
Staff of the Woodlands,y,50000,25000,35,17,25000,"","Smith's tools (Str or Int) (if metal), Woodcarver's tools (Dex or Wis) (if wood)"
Sword of Answering,y,54000,27000,35,17,27000,Melee weapon.,Smith's tools (Str or Int)
All-Purpose Tool +3,y,54000,27000,35,17,27000,"",Smith's tools (Str or Int)
Moon Sickle +3,y,54000,27000,35,17,27000,Sickle,Smith's tools (Str or Int)
Rhythm-Maker's Drum +3,y,54000,27000,35,17,27000,"",Leatherworker's tools (Dex or Wis)
Amulet of the Devout +3,y,56000,28000,35,17,28000,"",Jeweler's tools (Dex or Int)
Arcane Grimoire +3,y,56000,28000,35,17,28000,Spellbook,Calligrapher's supplies (Dex or Int)
Armor +3,n,60000,30000,35,17,30000,Armor.,"Smith's tools (Str or Int) (if metal), Leatherworker's tools (Dex or Wis) (if leather)"
Armor of Invulnerability,y,60000,30000,35,17,30000,Armor.,Smith's tools (Str or Int)
Crystal Ball of Telepathy,y,60000,30000,35,17,30000,"",Jeweler's tools (Dex or Int)
Defender,y,60000,30000,35,17,30000,Melee weapon.,Smith's tools (Str or Int)
Rod of the Pact Keeper +3,y,60000,30000,35,17,30000,"",Smith's tools (Str or Int)
Shield +3,n,60000,30000,35,17,30000,Shield.,"Smith's tools (Str or Int) (if metal), Woodcarver's tools (Dex or Wis) (if wood)"
Bloodwell Vial +3,y,60000,30000,35,17,30000,"",Glassblower's tools (Dex or Con)
Dwarven Thrower,y,64000,32000,35,17,32000,One-handed melee weapon.,Smith's tools (Str or Int)
Rod of Lordly Might,y,64000,32000,35,17,32000,"",Smith's tools (Str or Int)
Crystal Ball of True Seeing,y,70000,35000,35,17,35000,"",Jeweler's tools (Dex or Int)
Cloak of Invisibility,y,80000,40000,35,17,40000,"",Weaver's tools (Dex or Wis)
Crystal Ball of Mind Reading,y,80000,40000,35,17,40000,"",Jeweler's tools (Dex or Int)
Robe of the Archmagi,y,80000,40000,35,17,40000,"",Weaver's tools (Dex or Wis)
Holy Avenger,y,82500,41250,35,17,41250,Melee weapon.,Smith's tools (Str or Int)
Rod of Security,n,90000,45000,35,17,45000,"",Smith's tools (Str or Int)
Staff of Power,y,100000,50000,35,17,50000,Staff.,"Smith's tools (Str or Int) (if metal), Woodcarver's tools (Dex or Wis) (if wood)"
